…
    #sample size from 2 to 50
    sample_size=2:50,
    iter=1:10000) |>
  mutate(
    #using map function
    duplicate_df=map(sample_size,check_duplicate_birthday)
  )|> 
  #unnest
  unnest(duplicate_df) |>
  group_by(sample_size)|>
  summarize(probability = mean(duplicate_df))
probability_calculation
```

    ## # A tibble: 49 × 2
    ##    sample_size probability
    ##          <int>       <dbl>
    ##  1           2      0.0024
    ##  2           3      0.0085
    ##  3           4      0.0167
    ##  4           5      0.0267
    ##  5           6      0.0399
    ##  6           7      0.0521
    ##  7           8      0.0751
    ##  8           9      0.0925
    ##  9          10      0.116 
    ## 10          11      0.139 
    ## # ℹ 39 more rows
…
